BradleyTerryScalable
…
---
# A proper example

```r
comp_cites 
```

```
## # A tibble: 415,496 x 3
##    cited_pdpass citing_pdpass count
##    <chr>        <chr>         <dbl>
##  1 10032645     10030580          2
##  2 10083166     10030580          4
##  3 10170329     10030580          2
##  4 10191810     10030580          2
##  5 10223803     10030580          2
##  6 10254226     10030580          1
##  7 11490383     10030580          2
##  8 11720482     10030580          2
##  9 11811663     10030580          1
## 10 11862620     10030580          4
## # … with 415,486 more rows
```
…
